{
  "directoryRoot" : "/home/rendu/nas/batch_engine/data",
  "storageRoot" : "/Volumes/production/",
  "linuxRoot" : "/home/rendu/nas/prod/",
  "fileAtOnce" : 5,
  "directoryActions":[
    {
      "name"              : "HD169",
      "sourceFolder"      : "ENCODE_SL_HD_16_9",
      "subFolders"        : [ "topad","encoding","encoded", "stereo" ],
      "destinationFolder" : "_QC",
      "acceptedFiles"     : [ "mpg" ,"mov" , "mp4" , "mxf" , "mpeg" , "m4v" , "MPG" , "MOV" , "MP4" , "MXF" , "MPEG" ],
      "variables" : {
        "transcode": {
          "height"       : 1080,
          "width"        : 1920,
          "videoCodec"   : "h264",
          "videoBitrate" : 10,
          "videoFilter"  : "yadif=0:-1:0, fps=fps=25",
          "audioCodec"   : "aac",
          "audioBitrate" : 384,
          "audioChannel" : 2,
          "audioSamplingFrequency" : 48
        }
      },
      "action" : "bash LONG_FORMS.sh HD169"
    },
    {
      "name"              : "HD169NTSC",
      "sourceFolder"      : "ENCODE_SL_HD_16_9_NTSC",
      "subFolders"        : [ "topad","encoding","encoded" ],
      "destinationFolder" : "_QC",
      "acceptedFiles"     : [ "mpg" ,"mov" , "mp4" , "mxf" , "mpeg" , "m4v" , "MPG" , "MOV" , "MP4" , "MXF" , "MPEG" ],
      "variables" : {
        "transcode": {
          "height"       : 1080,
          "width"        : 1920,
          "videoCodec"   : "h264",
          "videoBitrate" : 10,
          "videoFilter"  : "yadif=send_field, minterpolate=fps=25:mi_mode=blend",
          "audioCodec"   : "aac",
          "audioBitrate" : 384,
          "audioChannel" : 2,
          "audioSamplingFrequency" : 48
        }
      },
      "action" : "bash LONG_FORMS.sh HD169NTSC"
    },
    {
      "name"              : "HD169NTSCPRO",
      "sourceFolder"      : "ENCODE_SL_HD_16_9_NTSC_PROGRESSIF",
      "subFolders"        : [ "topad","encoding","encoded" ],
      "destinationFolder" : "_QC",
      "acceptedFiles"     : [ "mpg" ,"mov" , "mp4" , "mxf" , "mpeg" , "m4v" , "MPG" , "MOV" , "MP4" , "MXF" , "MPEG" ],
      "variables" : {
        "transcode": {
          "height"       : 1080,
          "width"        : 1920,
          "videoCodec"   : "h264",
          "videoBitrate" : 10,
          "videoFilter"  : "yadif=0:-1:0, minterpolate=fps=25:mi_mode=blend",
          "audioCodec"   : "aac",
          "audioBitrate" : 384,
          "audioChannel" : 2,
          "audioSamplingFrequency" : 48
        }
      },
      "action" : "bash LONG_FORMS.sh HD169NTSCPRO"
    },
    {
      "name"              : "UHD4K",
      "sourceFolder"      : "ENCODE_SL_UHD_4K",
      "subFolders"        : [ "topad", "encoding", "encoded", "stereo" ],
      "destinationFolder" : "_QC",
      "acceptedFiles"     : [ "mpg" ,"mov" , "mp4" , "mxf" , "mpeg" , "m4v" , "MPG" , "MOV" , "MP4" , "MXF" , "MPEG" ],
      "variables" : {
        "transcode": {
          "height"       : 2160,
          "width"        : 3840,
          "videoCodec"   : "h264",
          "videoBitrate" : 20,
          "videoFilter"  : "yadif=0:-1:0, fps=fps=25",
          "audioCodec"   : "aac",
          "audioBitrate" : 384,
          "audioChannel" : 2,
          "audioSamplingFrequency" : 48
        }
      },
      "action" : "bash LONG_FORMS.sh UHD4K"
    },
    {
      "name"              : "FADE",
      "sourceFolder"      : "ENCODE_FADE",
      "subFolders"        : [ "encoding","encoded" ],
      "destinationFolder" : "_QC",
      "acceptedFiles"     : [ "mp4" ],
      "variables" : {
        "transcode": {
          "videoCodec"   : "h264",
          "videoBitrate" : 10,
          "audioCodec"   : "aac",
          "audioBitrate" : 384,
          "audioChannel" : 2,
          "audioSamplingFrequency" : 48,
          "fadeIn" : 3,
          "fadeOut" : 3,
          "blackScreen" : 0
        }
      },
      "action" : "bash FADE.sh"
    },
    {
      "name"              : "SHORTS",
      "sourceFolder"      : "ENCODE_SHORTS",
      "subFolders"        : [ "encoding","encoded" ],
      "destinationFolder" : "ENCODE_FADE",
      "acceptedFiles"     : [ "mp4" ],
      "variables" : {
        "transcode": {
          "videoCodec"   : "h264",
          "videoBitrate" : 12,
          "audioCodec"   : "aac",
          "audioBitrate" : 420,
          "audioChannel" : 2,
          "audioSamplingFrequency" : 48
        }
      },
      "action" : "bash SHORTS.sh"
    },{
      "name"              : "FUSION_MONO",
      "sourceFolder"      : "ENCODE_FUSION_MONO",
      "subFolders"        : [ "encoding","encoded" ],
      "destinationFolder" : "_QC",
      "acceptedFiles"     : [ "mpg" ,"mov" , "mp4" , "mxf" , "mpeg" , "MPG" , "MOV" , "MP4" , "MXF" , "MPEG" ],
      "variables" : {
        "transcode": {
          "videoCodec"   : "h264",
          "videoBitrate" : 12,
          "audioCodec"   : "aac",
          "audioBitrate" : 420,
          "audioChannel" : 2,
          "audioSamplingFrequency" : 48
        }
      },
      "action" : "bash FUSION_MONO.sh FUSION_MONO"
    },
    {
      "name"              : "SOUND_EQUALIZER",
      "sourceFolder"      : "SOUND_EQUALIZER",
      "subFolders"        : [ "encoding","encoded","soundCfg" ],
      "destinationFolder" : "_QC",
      "acceptedFiles"     : [ "mp4" ],
      "variables" : {
        "transcode": {
          "I" : -24.0,
          "LRA" : 11.0,
          "tp" : -2.0,
          "audioChannel" : 2,
          "audioSamplingFrequency" : 48
        }
      },
      "action" : "bash SOUND_EQUALIZER.sh"
    },
    {
      "name": "uploadCdnJazz",
      "sourceFolder"  : "UPLOAD_JAZZ",
      "subFolders"    : [ "uploading","uploaded" ],
      "acceptedFiles" : [ "mp4" ],
      "serverFolder"  : "/published/JAZZ/hd",
      "uploadProcess" : "sftp",
      "serverName"    : "cdn",
      "action"        : "bash UPLOAD_16_9.sh uploadCdnJazz"
    },
    {
      "name": "uploadCdnClassic",
      "sourceFolder"  : "UPLOAD_CLASSIC",
      "subFolders"    : [ "uploading","uploaded" ],
      "acceptedFiles" : [ "mp4" ],
      "serverFolder"  : "/published/CLASSIC/hd",
      "uploadProcess" : "sftp",
      "serverName"    : "cdn",
      "action"        : "bash UPLOAD_16_9.sh uploadCdnClassic"
    },
    {
      "name": "uploadCdnMix",
      "sourceFolder"  : "UPLOAD_MIX",
      "subFolders"    : [ "uploading","uploaded" ],
      "acceptedFiles" : [ "mp4" ],
      "serverFolder"  : "/published/MIX/hd",
      "uploadProcess" : "sftp",
      "serverName"    : "cdn",
      "action"        : "bash UPLOAD_16_9.sh uploadCdnMix"
    },
    {
      "name": "uploadS3Amagi",
      "sourceFolder"      : "UPLOAD_AMAGI",
      "subFolders"        : [ "uploading","uploaded" ],
      "acceptedFiles"     : [ "mp4" ],
      "serverFolder"      : "Media/S3/QWDEV",
      "uploadProcess"     : "s3",
      "serverName"        : "S3-AMAGI",
      "removeExtensions"  : 1,
      "action"            : "bash UPLOAD_16_9.sh uploadS3Amagi"
    },
    {
      "name": "uploadS3Okast",
      "sourceFolder"  : "UPLOAD_OKAST",
      "subFolders"    : [ "uploading","uploaded" ],
      "acceptedFiles" : [ "mp4" ],
      "serverFolder"  : "MOVIES",
      "uploadProcess" : "s3",
      "serverName"    : "S3-QWEST",
      "action"        : "bash UPLOAD_16_9.sh uploadS3Okast"
    },
    {
      "name": "uploadTEST",
      "sourceFolder"      : "UPLOAD_TEST",
      "subFolders"        : [ "uploading","uploaded" ],
      "acceptedFiles"     : [ "mp4" ],
      "serverFolder"      : "test",
      "uploadProcess"     : "test",
      "serverName"        : "test",
      "removeExtensions"  : 1,
      "action"            : "bash UPLOAD_16_9.sh uploadTEST"
    },
    {
      "name" : "HLS",
      "sourceFolder" : "HLS",
      "destinationFolder" : "OUTPUT_HLS",
      "serverFolder"      : "/published/hls",
      "acceptedFiles"     : [ "mpg" ,"mov" , "mp4" , "mxf" , "mpeg" ],
      "variables": {
        "HLSParameters": {
          "render": [
            "426x240,400k,64k",
            "640x360,800k,96k",
            "842x480,1400k,128k",
            "1280x720,2800k,128k",
            "1920x1080,5000k,192k"
          ],
          "videoCodec" : "h264",
          "audioCodec" : "aac"
        }
      },
      "action" : "bash HLS.sh"
    },
    {
      "name" : "OTT",
      "sourceFolder" : "OTT",
      "destinationFolder" : "OUTPUT_OTT",
      "acceptedFiles" : [ "done" ],
      "variables": {
        "HLSParameters": {
          "render": [
            "426x240,400k,64k",
            "640x360,800k,96k",
            "842x480,1400k,128k",
            "1280x720,2800k,128k",
            "1920x1080,5000k,192k"
          ],
          "videoCodec" : "h264",
          "audioCodec" : "aac"
        }
      },
      "action" : "bash OTT.sh"
    },
    {
      "name"              : "UPLOAD_video",
      "sourceFolder"      : "TO_UPLOAD",
      "destinationFolder" : "UPLOADED",
      "serverFolder"      : "./videos",
      "acceptedFiles"     : [ "mpg" ,"mov" , "mp4" , "mxf" , "mpeg" ],
      "action" : "bash SIMPLE_UPLOAD.sh UPLOAD_video"
    },
    {
      "name"              : "UPLOAD_image",
      "sourceFolder"      : "TO_UPLOAD",
      "destinationFolder" : "UPLOADED",
      "serverFolder"      : "./images",
      "acceptedFiles"     : [ "jpg" , "png" ],
      "action" : "bash SIMPLE_UPLOAD.sh UPLOAD_image"
    }
  ],
  "s3Credentials" : [
    {
      "name"      : "AMAGI",
      "type"      : "OTT",
      "accessKey" : "",
      "secretKey" : "",
      "region"    : "eu-west-1",
      "vault"     : "",
      "bucket"    : "amagicloud-qwest/Media/S3"
    },
    {
      "name"      : "QWEST",
      "type"      : "SVOD",
      "accessKey" : "",
      "secretKey" : "",
      "region"    : "eu-west-3",
      "vault"     : "",
      "bucket"    : ""
    },
    {
      "name"      : "HUAWEI",
      "type"      : "SVOD",
      "accessKey" : "",
      "secretKey" : "",
      "region"    : "eu-west-3",
      "vault"     : "",
      "bucket"    : ""
    }
  ],
  "serverLogin" : [
    {
      "name": "ovh",
      "user": "alexandre",
      "serverIp": "vps616106.ovh.net",
      "port": "22"
    },
    {
      "name": "cdn",
      "user": "qwesttv",
      "serverIp": "qwesttv.ingest.cdn.level3.net",
      "port": "22"
    },
    {
      "name": "log",
      "serverIp": "https://gatewayapi.littlecms.fr/api/qwestEngine/logs"
    },
    {
      "name": "S3-AMAGI",
      "profile": "AMAGI",
      "bucket": "amagicloud-qwest"
    },
    {
      "name": "S3-QWEST",
      "profile": "QWEST",
      "bucket": "qwestvideos"
    }
  ],
  "outputFolders" : [
    {
      "sourceFolder" : "_QC",
      "subFolders"   : [ "encoding" ]
    },
    {
      "sourceFolder" : "OUTPUT_HLS",
      "subFolders"   : [ "uploaded" ]
    }
  ],
  "commonSubFolders" : [ "error","error/.log",".tmp" ]
}

